Ciclo de Gestión de los Datos. Ecoinformática – Tidy data
…
Manipular datos con tidyverse

Explorar datos

library(tidyverse)
d <- read_csv("TU_RUTA/ifn_sn_tree.csv")

d

# A tibble: 8,786 × 10
   plot  aspect slope tree_id specie              dbh height tree_density_factor
   <chr>  <dbl> <dbl>   <dbl> <chr>             <dbl>  <dbl>               <dbl>
 1 0792    270     27       1 Pinus halepensis    8.5   3.8                127. 
 2 0792    270     27       2 Pinus halepensis   15.4   4.90                31.8
 3 0792    330.    40      10 Pinus halepensis   13.4   6.70                31.8
 4 0792    330.    40      12 Pinus halepensis   13.0   6.90                31.8
 5 0792    330.    40       1 Quercus ilex ssp…  13     2.40                31.8
 6 0792    330.    40       2 Quercus ilex ssp…  10.0   2                  127. 
 7 0792    330.    40       3 Quercus ilex ssp…  14.0   2                   31.8
 8 0792    330.    40       4 Quercus ilex ssp…  13.4   2.60                31.8
 9 0792    330.    40       5 Quercus ilex ssp…  10.2   2.3                127. 
10 0792    330.    40       6 Quercus ilex ssp…  10.4   2                  127. 
# ℹ 8,776 more rows
# ℹ 2 more variables: tree_quality_wood <dbl>, prov <chr>
…
Manipular datos: ordenar

Ordena los datos por pendiente

d |> 
  arrange(slope)

# A tibble: 8,786 × 10
   plot  aspect slope tree_id specie             dbh height tree_density_factor
   <chr>  <dbl> <dbl>   <dbl> <chr>            <dbl>  <dbl>               <dbl>
 1 0811    202.   7.5       1 Pinus sylvestris  13.6   6.70                31.8
 2 0811    202.   7.5       2 Pinus sylvestris  14.6   6.30                31.8
 3 0811    202.   7.5       3 Pinus sylvestris  15.1   6.20                31.8
 4 0811    202.   7.5       4 Pinus sylvestris  13.6   5.40                31.8
 5 0811    202.   7.5       5 Pinus sylvestris  13     6.10                31.8
 6 0811    202.   7.5       6 Pinus sylvestris  13.8   6.70                31.8
 7 0811    202.   7.5       7 Pinus sylvestris  14.6   6.40                31.8
 8 0811    202.   7.5       8 Pinus sylvestris  16.4   6.80                31.8
 9 0811    202.   7.5       9 Pinus sylvestris  20.5   7.30                31.8
10 0811    202.   7.5      10 Pinus sylvestris  13.9   5.90                31.8
# ℹ 8,776 more rows
# ℹ 2 more variables: tree_quality_wood <dbl>, prov <chr>

Manipular datos: ordenar

Ordena los datos por pendiente decreciente

d |> 
  arrange(desc(slope))

# A tibble: 8,786 × 10
   plot  aspect slope tree_id specie              dbh height tree_density_factor
   <chr>  <dbl> <dbl>   <dbl> <chr>             <dbl>  <dbl>               <dbl>
 1 0792    330.    40      10 Pinus halepensis  13.4    6.70                31.8
 2 0792    330.    40      12 Pinus halepensis  13.0    6.90                31.8
 3 0792    330.    40       1 Quercus ilex ssp… 13      2.40                31.8
 4 0792    330.    40       2 Quercus ilex ssp… 10.0    2                  127. 
 5 0792    330.    40       3 Quercus ilex ssp… 14.0    2                   31.8
 6 0792    330.    40       4 Quercus ilex ssp… 13.4    2.60                31.8
 7 0792    330.    40       5 Quercus ilex ssp… 10.2    2.3                127. 
 8 0792    330.    40       6 Quercus ilex ssp… 10.4    2                  127. 
 9 0792    330.    40       7 Quercus ilex ssp… 13      2.10                31.8
10 0792    330.    40       8 Quercus ilex ssp…  7.75   2                  127. 
# ℹ 8,776 more rows
# ℹ 2 more variables: tree_quality_wood <dbl>, prov <chr>

Manipular datos: ordenar

Ordena los datos por especie, de mayor a menor (altura)

d |> 
  arrange(specie, desc(height))

# A tibble: 8,786 × 10
   plot  aspect slope tree_id specie            dbh height tree_density_factor
   <chr>  <dbl> <dbl>   <dbl> <chr>           <dbl>  <dbl>               <dbl>
 1 0924    198     40       2 Acacia spp.      25.6  12.1                 14.1
 2 0924    198     40       3 Acacia spp.      25.7  NA                   14.1
 3 1247    161.    40       1 Acer opalus      14.4   9.10                31.8
 4 1264    194.    40       2 Acer opalus      17.7   7.80                31.8
 5 1264    194.    40       4 Acer opalus      15.8   7.60                31.8
 6 1264    194.    40       3 Acer opalus      19.1   6.70                31.8
 7 1264    194.    40       1 Acer opalus      13.2   6.5                 31.8
 8 1247    161.    40       2 Acer opalus      12.6   5                   31.8
 9 0904    167.    16      12 Alnus glutinosa  32.4  16.6                 14.1
10 0904    167.    16      15 Alnus glutinosa  32.2  15.2                 14.1
# ℹ 8,776 more rows
# ℹ 2 more variables: tree_quality_wood <dbl>, prov <chr>

Manipular datos: organizar columnas

Cambiar orden de las columnas

d |> 
  relocate(plot, .after = prov)

# A tibble: 8,786 × 10
   aspect slope tree_id specie                    dbh height tree_density_factor
    <dbl> <dbl>   <dbl> <chr>                   <dbl>  <dbl>               <dbl>
 1   270     27       1 Pinus halepensis          8.5   3.8                127. 
 2   270     27       2 Pinus halepensis         15.4   4.90                31.8
 3   330.    40      10 Pinus halepensis         13.4   6.70                31.8
 4   330.    40      12 Pinus halepensis         13.0   6.90                31.8
 5   330.    40       1 Quercus ilex ssp. ball…  13     2.40                31.8
 6   330.    40       2 Quercus ilex ssp. ball…  10.0   2                  127. 
 7   330.    40       3 Quercus ilex ssp. ball…  14.0   2                   31.8
 8   330.    40       4 Quercus ilex ssp. ball…  13.4   2.60                31.8
 9   330.    40       5 Quercus ilex ssp. ball…  10.2   2.3                127. 
10   330.    40       6 Quercus ilex ssp. ball…  10.4   2                  127. 
# ℹ 8,776 more rows
# ℹ 3 more variables: tree_quality_wood <dbl>, prov <chr>, plot <chr>

Manipular datos: seleccionar columnas

Selecciona las especies, su altura y dbh, la calidad de la madera, y el plot al que pertenecen

d |> 
  select(plot, specie, dbh, height, tree_quality_wood)

# A tibble: 8,786 × 5
   plot  specie                      dbh height tree_quality_wood
   <chr> <chr>                     <dbl>  <dbl>             <dbl>
 1 0792  Pinus halepensis            8.5   3.8                  2
 2 0792  Pinus halepensis           15.4   4.90                 2
 3 0792  Pinus halepensis           13.4   6.70                 2
 4 0792  Pinus halepensis           13.0   6.90                 2
 5 0792  Quercus ilex ssp. ballota  13     2.40                 5
 6 0792  Quercus ilex ssp. ballota  10.0   2                    5
 7 0792  Quercus ilex ssp. ballota  14.0   2                    5
 8 0792  Quercus ilex ssp. ballota  13.4   2.60                 5
 9 0792  Quercus ilex ssp. ballota  10.2   2.3                  5
10 0792  Quercus ilex ssp. ballota  10.4   2                    5
# ℹ 8,776 more rows

Manipular datos: seleccionar columnas

Conflicto select

select es una función que aparece en mas de un paquete, por lo que se pueden generar conflictos y/o errores

cuando la uses escribe dplyr::select

Selecciona las especies, su altura y dbh, la calidad de la madera, y el plot al que pertenecen

d |> 
  dplyr::select(plot, specie, dbh, height, tree_quality_wood)

# A tibble: 8,786 × 5
   plot  specie                      dbh height tree_quality_wood
   <chr> <chr>                     <dbl>  <dbl>             <dbl>
 1 0792  Pinus halepensis            8.5   3.8                  2
 2 0792  Pinus halepensis           15.4   4.90                 2
 3 0792  Pinus halepensis           13.4   6.70                 2
 4 0792  Pinus halepensis           13.0   6.90                 2
 5 0792  Quercus ilex ssp. ballota  13     2.40                 5
 6 0792  Quercus ilex ssp. ballota  10.0   2                    5
 7 0792  Quercus ilex ssp. ballota  14.0   2                    5
 8 0792  Quercus ilex ssp. ballota  13.4   2.60                 5
 9 0792  Quercus ilex ssp. ballota  10.2   2.3                  5
10 0792  Quercus ilex ssp. ballota  10.4   2                    5
# ℹ 8,776 more rows
…
select es una función muy poderosa

Selecciona las especies, su altura y dbh, y el plot al que pertenecen; renombra y recoloca)

datos <- d |> 
  dplyr::select(
    plot, 
    sp = specie, 
    dbh_cm = dbh, 
    altura_m = height,
    calidad_madera = tree_quality_wood)

datos

# A tibble: 8,786 × 5
   plot  sp                        dbh_cm altura_m calidad_madera
   <chr> <chr>                      <dbl>    <dbl>          <dbl>
 1 0792  Pinus halepensis             8.5     3.8               2
 2 0792  Pinus halepensis            15.4     4.90              2
 3 0792  Pinus halepensis            13.4     6.70              2
 4 0792  Pinus halepensis            13.0     6.90              2
 5 0792  Quercus ilex ssp. ballota   13       2.40              5
 6 0792  Quercus ilex ssp. ballota   10.0     2                 5
 7 0792  Quercus ilex ssp. ballota   14.0     2                 5
 8 0792  Quercus ilex ssp. ballota   13.4     2.60              5
 9 0792  Quercus ilex ssp. ballota   10.2     2.3               5
10 0792  Quercus ilex ssp. ballota   10.4     2                 5
# ℹ 8,776 more rows

Filtrar casos

Selecciona árboles de Pinus sylvestris

datos |> 
  filter(sp == "Pinus sylvestris")

# A tibble: 2,948 × 5
   plot  sp               dbh_cm altura_m calidad_madera
   <chr> <chr>             <dbl>    <dbl>          <dbl>
 1 0795  Pinus sylvestris   12.6     6.30              2
 2 0795  Pinus sylvestris   11.2     7.10              2
 3 0795  Pinus sylvestris   15.6     6.40              2
 4 0795  Pinus sylvestris   14.9     7.70              2
 5 0795  Pinus sylvestris   13.4     7                 2
 6 0795  Pinus sylvestris   13.3     6.30              2
 7 0795  Pinus sylvestris   19.2     7.5               2
 8 0795  Pinus sylvestris   15.2     7.60              2
 9 0795  Pinus sylvestris   17.6     7.40              2
10 0795  Pinus sylvestris   14.6     7.5               2
# ℹ 2,938 more rows

Filtrar casos

Selecciona árboles de Pinus

datos |> 
  filter(str_detect(string = sp, pattern = "Pinus"))

# A tibble: 7,185 × 5
   plot  sp               dbh_cm altura_m calidad_madera
   <chr> <chr>             <dbl>    <dbl>          <dbl>
 1 0792  Pinus halepensis    8.5     3.8               2
 2 0792  Pinus halepensis   15.4     4.90              2
 3 0792  Pinus halepensis   13.4     6.70              2
 4 0792  Pinus halepensis   13.0     6.90              2
 5 0795  Pinus sylvestris   12.6     6.30              2
 6 0795  Pinus sylvestris   11.2     7.10              2
 7 0795  Pinus sylvestris   15.6     6.40              2
 8 0795  Pinus sylvestris   14.9     7.70              2
 9 0795  Pinus sylvestris   13.4     7                 2
10 0795  Pinus sylvestris   13.3     6.30              2
# ℹ 7,175 more rows

Filtrar casos

Selecciona árboles adultos (dbh > 7.5) de Pinus

datos |> 
  filter(str_detect(string = sp, pattern = "Pinus")) |> 
  filter(dbh_cm > 7.5)

# A tibble: 7,183 × 5
   plot  sp               dbh_cm altura_m calidad_madera
   <chr> <chr>             <dbl>    <dbl>          <dbl>
 1 0792  Pinus halepensis    8.5     3.8               2
 2 0792  Pinus halepensis   15.4     4.90              2
 3 0792  Pinus halepensis   13.4     6.70              2
 4 0792  Pinus halepensis   13.0     6.90              2
 5 0795  Pinus sylvestris   12.6     6.30              2
 6 0795  Pinus sylvestris   11.2     7.10              2
 7 0795  Pinus sylvestris   15.6     6.40              2
 8 0795  Pinus sylvestris   14.9     7.70              2
 9 0795  Pinus sylvestris   13.4     7                 2
10 0795  Pinus sylvestris   13.3     6.30              2
# ℹ 7,173 more rows

Filtrar casos

Selecciona árboles adultos (dbh > 7.5) de Pinus

datos |> 
  filter(str_detect(string = sp, pattern = "Pinus") & (dbh_cm > 7.5))

# A tibble: 7,183 × 5
   plot  sp               dbh_cm altura_m calidad_madera
   <chr> <chr>             <dbl>    <dbl>          <dbl>
 1 0792  Pinus halepensis    8.5     3.8               2
 2 0792  Pinus halepensis   15.4     4.90              2
 3 0792  Pinus halepensis   13.4     6.70              2
 4 0792  Pinus halepensis   13.0     6.90              2
 5 0795  Pinus sylvestris   12.6     6.30              2
 6 0795  Pinus sylvestris   11.2     7.10              2
 7 0795  Pinus sylvestris   15.6     6.40              2
 8 0795  Pinus sylvestris   14.9     7.70              2
 9 0795  Pinus sylvestris   13.4     7                 2
10 0795  Pinus sylvestris   13.3     6.30              2
# ℹ 7,173 more rows

Filtrar casos

Selecciona árboles adultos (dbh > 7.5) de Pinus con calidad de madera entre 1 y 3

datos |> 
  filter(str_detect(string = sp, pattern = "Pinus")) |> 
  filter(dbh_cm > 7.5) |> 
  filter(calidad_madera %in% c(1,2,3))

# A tibble: 6,926 × 5
   plot  sp               dbh_cm altura_m calidad_madera
   <chr> <chr>             <dbl>    <dbl>          <dbl>
 1 0792  Pinus halepensis    8.5     3.8               2
 2 0792  Pinus halepensis   15.4     4.90              2
 3 0792  Pinus halepensis   13.4     6.70              2
 4 0792  Pinus halepensis   13.0     6.90              2
 5 0795  Pinus sylvestris   12.6     6.30              2
 6 0795  Pinus sylvestris   11.2     7.10              2
 7 0795  Pinus sylvestris   15.6     6.40              2
 8 0795  Pinus sylvestris   14.9     7.70              2
 9 0795  Pinus sylvestris   13.4     7                 2
10 0795  Pinus sylvestris   13.3     6.30              2
# ℹ 6,916 more rows
…
# A tibble: 1 × 1
      n
  <int>
1   289

Crear variable

Calcula el área basal de cada indivudo

datos |> 
  mutate(area_basal = (pi * (dbh_cm/200)^2))

# A tibble: 8,786 × 6
   plot  sp                        dbh_cm altura_m calidad_madera area_basal
   <chr> <chr>                      <dbl>    <dbl>          <dbl>      <dbl>
 1 0792  Pinus halepensis             8.5     3.8               2    0.00567
 2 0792  Pinus halepensis            15.4     4.90              2    0.0187 
 3 0792  Pinus halepensis            13.4     6.70              2    0.0141 
 4 0792  Pinus halepensis            13.0     6.90              2    0.0132 
 5 0792  Quercus ilex ssp. ballota   13       2.40              5    0.0133 
 6 0792  Quercus ilex ssp. ballota   10.0     2                 5    0.00793
 7 0792  Quercus ilex ssp. ballota   14.0     2                 5    0.0155 
 8 0792  Quercus ilex ssp. ballota   13.4     2.60              5    0.0140 
 9 0792  Quercus ilex ssp. ballota   10.2     2.3               5    0.00817
10 0792  Quercus ilex ssp. ballota   10.4     2                 5    0.00841
# ℹ 8,776 more rows
…
Calcular variables agregadas

Calcula el número de individuos por parcela

datos |> 
  group_by(plot) |> 
  summarise(n_ind = n())

# A tibble: 376 × 2
   plot  n_ind
   <chr> <int>
 1 0792     14
 2 0795     41
 3 0796      3
 4 0797     17
 5 0798     14
 6 0799     26
 7 0800      9
 8 0801     15
 9 0802      1
10 0803     71
# ℹ 366 more rows

Calcular variables agregadas

Calcula el número de individuos de cada especie por parcela

datos |> 
  group_by(plot, sp) |> 
  summarise(n_ind = n())

# A tibble: 633 × 3
# Groups:   plot [376]
   plot  sp                        n_ind
   <chr> <chr>                     <int>
 1 0792  Pinus halepensis              4
 2 0792  Quercus ilex ssp. ballota    10
 3 0795  Pinus pinaster                1
 4 0795  Pinus sylvestris             40
 5 0796  Pinus nigra                   2
 6 0796  Quercus ilex ssp. ballota     1
 7 0797  Pinus pinaster               17
 8 0798  Quercus ilex ssp. ballota    14
 9 0799  Pinus nigra                  25
10 0799  Quercus ilex ssp. ballota     1
# ℹ 623 more rows

Calcular variables agregadas

Calcula la altura media, min y maxima de cada especie en cada parcela

datos |> 
  group_by(plot, sp) |> 
  summarise(altura_media = mean(altura_m)) 

# A tibble: 633 × 3
# Groups:   plot [376]
   plot  sp                        altura_media
   <chr> <chr>                            <dbl>
 1 0792  Pinus halepensis                  5.57
 2 0792  Quercus ilex ssp. ballota         2.35
 3 0795  Pinus pinaster                    6.30
 4 0795  Pinus sylvestris                 NA   
 5 0796  Pinus nigra                       7.65
 6 0796  Quercus ilex ssp. ballota         5   
 7 0797  Pinus pinaster                   NA   
 8 0798  Quercus ilex ssp. ballota         5.28
 9 0799  Pinus nigra                       6.94
10 0799  Quercus ilex ssp. ballota         5.30
# ℹ 623 more rows

Calcular variables agregadas

Calcula la altura media y la desviación estándar de cada especie en cada parcela

datos |> 
  group_by(plot, sp) |> 
  summarise(altura_media = mean(altura_m, na.rm = TRUE)) 

# A tibble: 633 × 3
# Groups:   plot [376]
   plot  sp                        altura_media
   <chr> <chr>                            <dbl>
 1 0792  Pinus halepensis                  5.57
 2 0792  Quercus ilex ssp. ballota         2.35
 3 0795  Pinus pinaster                    6.30
 4 0795  Pinus sylvestris                  6.74
 5 0796  Pinus nigra                       7.65
 6 0796  Quercus ilex ssp. ballota         5   
 7 0797  Pinus pinaster                    5.53
 8 0798  Quercus ilex ssp. ballota         5.28
 9 0799  Pinus nigra                       6.94
10 0799  Quercus ilex ssp. ballota         5.30
# ℹ 623 more rows

Calcular variables agregadas

Calcula la altura media y la desviación estándar de cada especie en cada parcela

datos |> 
  group_by(plot, sp) |> 
  summarise(altura_media = mean(altura_m, na.rm = TRUE),
            altura_sd = sd(altura_m, na.rm = TRUE))

# A tibble: 633 × 4
# Groups:   plot [376]
   plot  sp                        altura_media altura_sd
   <chr> <chr>                            <dbl>     <dbl>
 1 0792  Pinus halepensis                  5.57     1.49 
 2 0792  Quercus ilex ssp. ballota         2.35     0.582
 3 0795  Pinus pinaster                    6.30    NA    
 4 0795  Pinus sylvestris                  6.74     0.628
 5 0796  Pinus nigra                       7.65     2.62 
 6 0796  Quercus ilex ssp. ballota         5       NA    
 7 0797  Pinus pinaster                    5.53     0.911
 8 0798  Quercus ilex ssp. ballota         5.28     1.48 
 9 0799  Pinus nigra                       6.94     0.774
10 0799  Quercus ilex ssp. ballota         5.30    NA    
# ℹ 623 more rows
…
Source: Garrick Aden-Buie’s - Tidyexplained Verbs

Reestructuración de datos

Calcula la calidad promedio de las diferentes especies de Pinus en cada parcela

datos |> 
  filter(str_detect(sp, "Pinus")) |> 
  group_by(plot, sp) |> 
  summarise(calidad_promedio = mean(calidad_madera, na.rm = TRUE)) |> 
  ungroup() |> 
  pivot_wider(names_from = sp, values_from = calidad_promedio)

# A tibble: 289 × 7
   plot  `Pinus halepensis` `Pinus pinaster` `Pinus sylvestris` `Pinus nigra`
   <chr>              <dbl>            <dbl>              <dbl>         <dbl>
 1 0792                   2            NA                  NA              NA
 2 0795                  NA             2                   2.2            NA
 3 0796                  NA            NA                  NA               2
 4 0797                  NA             2.29               NA              NA
 5 0799                  NA            NA                  NA               2
 6 0800                  NA             2                  NA               2
 7 0801                  NA             2.11               NA               2
 8 0802                  NA             2                  NA              NA
 9 0803                  NA             2                  NA              NA
10 0805                  NA             2.27               NA              NA
# ℹ 279 more rows
# ℹ 2 more variables: `Pinus uncinata` <dbl>, `Pinus pinea` <dbl>
…
